EESchema Schematic File Version 4
EELAYER 30 0
EELAYER END
$Descr A4 11693 8268
encoding utf-8
Sheet 3 3
Title ""
Date ""
Rev ""
Comp ""
Comment1 ""
Comment2 ""
Comment3 ""
Comment4 ""
$EndDescr
$Comp
L Device:R R?
U 1 1 5FE24A9D
P 2150 1950
AR Path="/5F7C1723/5FE24A9D" Ref="R?"  Part="1" 
AR Path="/5F7C1723/5FC6AEA7/5FE24A9D" Ref="R13"  Part="1" 
F 0 "R13" V 1943 1950 50  0000 C CNN
F 1 "10k" V 2034 1950 50  0000 C CNN
F 2 "Resistor_SMD:R_0603_1608Metric_Pad1.05x0.95mm_HandSolder" V 2080 1950 50  0001 C CNN
F 3 "~" H 2150 1950 50  0001 C CNN
	1    2150 1950
	-1   0    0    1   
$EndComp
$Comp
L Device:R R?
U 1 1 5FE24AA3
P 1850 1950
AR Path="/5F7C1723/5FE24AA3" Ref="R?"  Part="1" 
AR Path="/5F7C1723/5FC6AEA7/5FE24AA3" Ref="R12"  Part="1" 
F 0 "R12" V 1643 1950 50  0000 C CNN
F 1 "10k" V 1734 1950 50  0000 C CNN
F 2 "Resistor_SMD:R_0603_1608Metric_Pad1.05x0.95mm_HandSolder" V 1780 1950 50  0001 C CNN
F 3 "~" H 1850 1950 50  0001 C CNN
	1    1850 1950
	-1   0    0    1   
$EndComp
$Comp
L Device:R R?
U 1 1 5FE24AA9
P 1250 1950
AR Path="/5F7C1723/5FE24AA9" Ref="R?"  Part="1" 
AR Path="/5F7C1723/5FC6AEA7/5FE24AA9" Ref="R11"  Part="1" 
F 0 "R11" V 1043 1950 50  0000 C CNN
F 1 "10k" V 1134 1950 50  0000 C CNN
F 2 "Resistor_SMD:R_0603_1608Metric_Pad1.05x0.95mm_HandSolder" V 1180 1950 50  0001 C CNN
F 3 "~" H 1250 1950 50  0001 C CNN
	1    1250 1950
	-1   0    0    1   
$EndComp
Wire Wire Line
	1250 2100 1250 2300
Wire Wire Line
	1100 2300 1250 2300
Wire Wire Line
	1850 2100 1850 2500
Connection ~ 1850 2500
Wire Wire Line
	1850 2500 1100 2500
Wire Wire Line
	2150 2100 2150 2600
$Comp
L Device:R R?
U 1 1 5FE24AB5
P 3400 1650
AR Path="/5F7C1723/5FE24AB5" Ref="R?"  Part="1" 
AR Path="/5F7C1723/5FC6AEA7/5FE24AB5" Ref="R14"  Part="1" 
F 0 "R14" V 3193 1650 50  0000 C CNN
F 1 "20k" V 3284 1650 50  0000 C CNN
F 2 "Resistor_SMD:R_0603_1608Metric_Pad1.05x0.95mm_HandSolder" V 3330 1650 50  0001 C CNN
F 3 "~" H 3400 1650 50  0001 C CNN
	1    3400 1650
	-1   0    0    1   
$EndComp
$Comp
L Device:R R?
U 1 1 5FE24ABB
P 3400 2900
AR Path="/5F7C1723/5FE24ABB" Ref="R?"  Part="1" 
AR Path="/5F7C1723/5FC6AEA7/5FE24ABB" Ref="R15"  Part="1" 
F 0 "R15" V 3193 2900 50  0000 C CNN
F 1 "20k" V 3284 2900 50  0000 C CNN
F 2 "Resistor_SMD:R_0603_1608Metric_Pad1.05x0.95mm_HandSolder" V 3330 2900 50  0001 C CNN
F 3 "~" H 3400 2900 50  0001 C CNN
	1    3400 2900
	-1   0    0    1   
$EndComp
Wire Wire Line
	3200 2300 3400 2300
Wire Wire Line
	3200 2600 3400 2600
Wire Wire Line
	3400 2600 3400 2700
$Comp
L Device:R R?
U 1 1 5FE24AC4
P 4400 2450
AR Path="/5F7C1723/5FE24AC4" Ref="R?"  Part="1" 
AR Path="/5F7C1723/5FC6AEA7/5FE24AC4" Ref="R16"  Part="1" 
F 0 "R16" V 4193 2450 50  0000 C CNN
F 1 "120R" V 4284 2450 50  0000 C CNN
F 2 "Resistor_SMD:R_0603_1608Metric_Pad1.05x0.95mm_HandSolder" V 4330 2450 50  0001 C CNN
F 3 "~" H 4400 2450 50  0001 C CNN
	1    4400 2450
	-1   0    0    1   
$EndComp
$Comp
L Jumper:SolderJumper_2_Open JP?
U 1 1 5FE24ACA
P 4100 2050
AR Path="/5F7C1723/5FE24ACA" Ref="JP?"  Part="1" 
AR Path="/5F7C1723/5FC6AEA7/5FE24ACA" Ref="JP1"  Part="1" 
F 0 "JP1" H 4100 2255 50  0000 C CNN
F 1 "SolderJumper_TERMINATE_BUS" H 4100 2164 50  0000 C CNN
F 2 "Jumper:SolderJumper-2_P1.3mm_Open_RoundedPad1.0x1.5mm" H 4100 2050 50  0001 C CNN
F 3 "~" H 4100 2050 50  0001 C CNN
	1    4100 2050
	-1   0    0    1   
$EndComp
Connection ~ 3400 2700
Wire Wire Line
	3400 2700 3400 2750
Wire Wire Line
	3400 2050 3950 2050
Wire Wire Line
	3400 2050 3400 2300
Wire Wire Line
	3400 1800 3400 2050
Connection ~ 3400 2050
Wire Wire Line
	4250 2050 4400 2050
Wire Wire Line
	4400 2050 4400 2300
Wire Wire Line
	4400 2700 4400 2600
Wire Wire Line
	3400 2700 4400 2700
Wire Wire Line
	4400 2050 4850 2050
Connection ~ 4400 2050
Wire Wire Line
	4400 2700 4850 2700
Connection ~ 4400 2700
Wire Wire Line
	3400 3050 3400 3150
Wire Wire Line
	3400 3150 3750 3150
Wire Wire Line
	3750 3150 3750 3050
Wire Wire Line
	3400 1500 3400 1350
Wire Wire Line
	3400 1350 3750 1350
Wire Wire Line
	3750 1350 3750 1450
$Comp
L power:GND #PWR?
U 1 1 5FE24AE4
P 3750 1450
AR Path="/5F7C1723/5FE24AE4" Ref="#PWR?"  Part="1" 
AR Path="/5F7C1723/5FC6AEA7/5FE24AE4" Ref="#PWR0135"  Part="1" 
F 0 "#PWR0135" H 3750 1200 50  0001 C CNN
F 1 "GND" H 3755 1277 50  0000 C CNN
F 2 "" H 3750 1450 50  0001 C CNN
F 3 "" H 3750 1450 50  0001 C CNN
	1    3750 1450
	1    0    0    -1  
$EndComp
$Comp
L power:VCC #PWR?
U 1 1 5FE24AEA
P 3750 3050
AR Path="/5F7C1723/5FE24AEA" Ref="#PWR?"  Part="1" 
AR Path="/5F7C1723/5FC6AEA7/5FE24AEA" Ref="#PWR0142"  Part="1" 
F 0 "#PWR0142" H 3750 2900 50  0001 C CNN
F 1 "VCC" H 3765 3223 50  0000 C CNN
F 2 "" H 3750 3050 50  0001 C CNN
F 3 "" H 3750 3050 50  0001 C CNN
	1    3750 3050
	1    0    0    -1  
$EndComp
Text GLabel 4850 2050 2    50   Output ~ 0
B
Text GLabel 4850 2700 2    50   Output ~ 0
A
$Comp
L power:GND #PWR?
U 1 1 5FE24AF2
P 2800 3100
AR Path="/5F7C1723/5FE24AF2" Ref="#PWR?"  Part="1" 
AR Path="/5F7C1723/5FC6AEA7/5FE24AF2" Ref="#PWR0143"  Part="1" 
F 0 "#PWR0143" H 2800 2850 50  0001 C CNN
F 1 "GND" H 2805 2927 50  0000 C CNN
F 2 "" H 2800 3100 50  0001 C CNN
F 3 "" H 2800 3100 50  0001 C CNN
	1    2800 3100
	1    0    0    -1  
$EndComp
Wire Wire Line
	2800 3000 2800 3100
Wire Wire Line
	2800 1900 2800 1600
$Comp
L power:VCC #PWR?
U 1 1 5FE24AFA
P 2800 1600
AR Path="/5F7C1723/5FE24AFA" Ref="#PWR?"  Part="1" 
AR Path="/5F7C1723/5FC6AEA7/5FE24AFA" Ref="#PWR0144"  Part="1" 
F 0 "#PWR0144" H 2800 1450 50  0001 C CNN
F 1 "VCC" H 2815 1773 50  0000 C CNN
F 2 "" H 2800 1600 50  0001 C CNN
F 3 "" H 2800 1600 50  0001 C CNN
	1    2800 1600
	1    0    0    -1  
$EndComp
Text GLabel 1100 2300 0    50   Output ~ 0
RX1
Wire Wire Line
	1950 2400 1950 2500
Wire Wire Line
	1950 2500 1850 2500
Text GLabel 1100 2500 0    50   Output ~ 0
DE_RE
Text GLabel 1100 2600 0    50   Output ~ 0
TX1
$Comp
L power:VCC #PWR?
U 1 1 5FE24B05
P 2150 1700
AR Path="/5F7C1723/5FE24B05" Ref="#PWR?"  Part="1" 
AR Path="/5F7C1723/5FC6AEA7/5FE24B05" Ref="#PWR0147"  Part="1" 
F 0 "#PWR0147" H 2150 1550 50  0001 C CNN
F 1 "VCC" H 2165 1873 50  0000 C CNN
F 2 "" H 2150 1700 50  0001 C CNN
F 3 "" H 2150 1700 50  0001 C CNN
	1    2150 1700
	1    0    0    -1  
$EndComp
$Comp
L power:VCC #PWR?
U 1 1 5FE24B0B
P 1250 1700
AR Path="/5F7C1723/5FE24B0B" Ref="#PWR?"  Part="1" 
AR Path="/5F7C1723/5FC6AEA7/5FE24B0B" Ref="#PWR0148"  Part="1" 
F 0 "#PWR0148" H 1250 1550 50  0001 C CNN
F 1 "VCC" H 1265 1873 50  0000 C CNN
F 2 "" H 1250 1700 50  0001 C CNN
F 3 "" H 1250 1700 50  0001 C CNN
	1    1250 1700
	1    0    0    -1  
$EndComp
Wire Wire Line
	1250 1800 1250 1700
$Comp
L power:VCC #PWR?
U 1 1 5FE24B12
P 1850 1700
AR Path="/5F7C1723/5FE24B12" Ref="#PWR?"  Part="1" 
AR Path="/5F7C1723/5FC6AEA7/5FE24B12" Ref="#PWR0149"  Part="1" 
F 0 "#PWR0149" H 1850 1550 50  0001 C CNN
F 1 "VCC" H 1865 1873 50  0000 C CNN
F 2 "" H 1850 1700 50  0001 C CNN
F 3 "" H 1850 1700 50  0001 C CNN
	1    1850 1700
	1    0    0    -1  
$EndComp
Wire Wire Line
	1850 1800 1850 1700
Wire Wire Line
	2150 1800 2150 1700
$Comp
L power:GND #PWR?
U 1 1 5FE24B1A
P 5700 3000
AR Path="/5F7C1723/5FE24B1A" Ref="#PWR?"  Part="1" 
AR Path="/5F7C1723/5FC6AEA7/5FE24B1A" Ref="#PWR0150"  Part="1" 
F 0 "#PWR0150" H 5700 2750 50  0001 C CNN
F 1 "GND" H 5705 2827 50  0000 C CNN
F 2 "" H 5700 3000 50  0001 C CNN
F 3 "" H 5700 3000 50  0001 C CNN
	1    5700 3000
	1    0    0    -1  
$EndComp
$Comp
L Connector:Conn_01x04_Female J?
U 1 1 5FE24B20
P 6050 2700
AR Path="/5F7C1723/5FE24B20" Ref="J?"  Part="1" 
AR Path="/5F7C1723/5FC6AEA7/5FE24B20" Ref="J7"  Part="1" 
F 0 "J7" H 6078 2676 50  0000 L CNN
F 1 "UART_HC06_CONN" H 6078 2585 50  0000 L CNN
F 2 "Connector_PinSocket_2.54mm:PinSocket_1x04_P2.54mm_Vertical" H 6050 2700 50  0001 C CNN
F 3 "~" H 6050 2700 50  0001 C CNN
	1    6050 2700
	1    0    0    -1  
$EndComp
Text Notes 5250 2500 0    50   ~ 0
HC06 socket with crossed uart 
Wire Wire Line
	5700 2800 5700 3000
Wire Wire Line
	5700 2800 5850 2800
Wire Wire Line
	5850 2900 5400 2900
Wire Wire Line
	5400 2900 5400 2850
$Comp
L power:VCC #PWR?
U 1 1 5FE24B2B
P 5400 2850
AR Path="/5F7C1723/5FE24B2B" Ref="#PWR?"  Part="1" 
AR Path="/5F7C1723/5FC6AEA7/5FE24B2B" Ref="#PWR0151"  Part="1" 
F 0 "#PWR0151" H 5400 2700 50  0001 C CNN
F 1 "VCC" H 5415 3023 50  0000 C CNN
F 2 "" H 5400 2850 50  0001 C CNN
F 3 "" H 5400 2850 50  0001 C CNN
	1    5400 2850
	1    0    0    -1  
$EndComp
$Comp
L Interface_UART:MAX485E U?
U 1 1 5FE24B31
P 2800 2400
AR Path="/5F7C1723/5FE24B31" Ref="U?"  Part="1" 
AR Path="/5F7C1723/5FC6AEA7/5FE24B31" Ref="U4"  Part="1" 
F 0 "U4" H 2800 3081 50  0000 C CNN
F 1 "MAX3485" H 2800 2990 50  0000 C CNN
F 2 "Package_SO:SO-8_3.9x4.9mm_P1.27mm" H 2800 1700 50  0001 C CNN
F 3 "https://datasheets.maximintegrated.com/en/ds/MAX3483-MAX3491.pdf" H 2800 2450 50  0001 C CNN
	1    2800 2400
	1    0    0    -1  
$EndComp
Wire Wire Line
	2400 2300 1250 2300
Connection ~ 1250 2300
Wire Wire Line
	2400 2400 1950 2400
Wire Wire Line
	2400 2500 1950 2500
Connection ~ 1950 2500
Wire Wire Line
	1100 2600 2150 2600
Connection ~ 2150 2600
Wire Wire Line
	2150 2600 2400 2600
$Comp
L Connector:Conn_01x04_Female J?
U 1 1 5FE24B3F
P 6200 1850
AR Path="/5F7C1723/5FE24B3F" Ref="J?"  Part="1" 
AR Path="/5F7C1723/5FC6AEA7/5FE24B3F" Ref="J9"  Part="1" 
F 0 "J9" H 6228 1826 50  0000 L CNN
F 1 "I2C_CONN" H 6228 1735 50  0000 L CNN
F 2 "Connector_PinSocket_2.54mm:PinSocket_1x04_P2.54mm_Vertical" H 6200 1850 50  0001 C CNN
F 3 "~" H 6200 1850 50  0001 C CNN
	1    6200 1850
	1    0    0    -1  
$EndComp
Text GLabel 5600 1750 0    50   Input ~ 0
SDA
Text GLabel 5600 1850 0    50   Input ~ 0
SCL
$Comp
L power:VCC #PWR?
U 1 1 5FE24B47
P 5300 1900
AR Path="/5F7C1723/5FE24B47" Ref="#PWR?"  Part="1" 
AR Path="/5F7C1723/5FC6AEA7/5FE24B47" Ref="#PWR0152"  Part="1" 
F 0 "#PWR0152" H 5300 1750 50  0001 C CNN
F 1 "VCC" H 5315 2073 50  0000 C CNN
F 2 "" H 5300 1900 50  0001 C CNN
F 3 "" H 5300 1900 50  0001 C CNN
	1    5300 1900
	1    0    0    -1  
$EndComp
Wire Wire Line
	5300 1900 5300 1950
$Comp
L power:GND #PWR?
U 1 1 5FE24B4E
P 5800 2100
AR Path="/5F7C1723/5FE24B4E" Ref="#PWR?"  Part="1" 
AR Path="/5F7C1723/5FC6AEA7/5FE24B4E" Ref="#PWR0154"  Part="1" 
F 0 "#PWR0154" H 5800 1850 50  0001 C CNN
F 1 "GND" H 5805 1927 50  0000 C CNN
F 2 "" H 5800 2100 50  0001 C CNN
F 3 "" H 5800 2100 50  0001 C CNN
	1    5800 2100
	1    0    0    -1  
$EndComp
Wire Wire Line
	6000 2050 5800 2050
Wire Wire Line
	5800 2050 5800 2100
Wire Wire Line
	5600 1850 5650 1850
Text GLabel 5650 2700 0    50   Input ~ 0
RX2
Text GLabel 5650 2600 0    50   Output ~ 0
TX2
Wire Wire Line
	5850 2600 5650 2600
Wire Wire Line
	5850 2700 5650 2700
$Comp
L Device:R R?
U 1 1 5FE24B5B
P 5950 1300
AR Path="/5F7C1723/5FE24B5B" Ref="R?"  Part="1" 
AR Path="/5F7C1723/5FC6AEA7/5FE24B5B" Ref="R26"  Part="1" 
F 0 "R26" V 5743 1300 50  0000 C CNN
F 1 "4,7k" V 5834 1300 50  0000 C CNN
F 2 "Resistor_SMD:R_0603_1608Metric_Pad1.05x0.95mm_HandSolder" V 5880 1300 50  0001 C CNN
F 3 "~" H 5950 1300 50  0001 C CNN
	1    5950 1300
	-1   0    0    1   
$EndComp
$Comp
L Device:R R?
U 1 1 5FE24B61
P 5650 1300
AR Path="/5F7C1723/5FE24B61" Ref="R?"  Part="1" 
AR Path="/5F7C1723/5FC6AEA7/5FE24B61" Ref="R24"  Part="1" 
F 0 "R24" V 5443 1300 50  0000 C CNN
F 1 "4,7k" V 5534 1300 50  0000 C CNN
F 2 "Resistor_SMD:R_0603_1608Metric_Pad1.05x0.95mm_HandSolder" V 5580 1300 50  0001 C CNN
F 3 "~" H 5650 1300 50  0001 C CNN
	1    5650 1300
	-1   0    0    1   
$EndComp
Wire Wire Line
	5950 1450 5950 1750
Wire Wire Line
	5650 1450 5650 1850
Connection ~ 5650 1850
Wire Wire Line
	5600 1750 5950 1750
Wire Wire Line
	5950 1750 6000 1750
Connection ~ 5950 1750
Wire Wire Line
	5650 1850 6000 1850
Wire Wire Line
	5950 1150 5950 1050
Wire Wire Line
	5950 1050 5650 1050
Wire Wire Line
	5650 1050 5650 1150
Wire Wire Line
	5650 1050 5650 950 
Connection ~ 5650 1050
$Comp
L power:VCC #PWR?
U 1 1 5FE24B73
P 5650 950
AR Path="/5F7C1723/5FE24B73" Ref="#PWR?"  Part="1" 
AR Path="/5F7C1723/5FC6AEA7/5FE24B73" Ref="#PWR0156"  Part="1" 
F 0 "#PWR0156" H 5650 800 50  0001 C CNN
F 1 "VCC" H 5665 1123 50  0000 C CNN
F 2 "" H 5650 950 50  0001 C CNN
F 3 "" H 5650 950 50  0001 C CNN
	1    5650 950 
	1    0    0    -1  
$EndComp
Wire Wire Line
	5300 1950 6000 1950
Wire Notes Line
	650  3350 650  600 
Text Notes 700  800  0    129  ~ 0
CONNECTIVITY
$Comp
L Connector:Conn_01x06_Female J10
U 1 1 5FB931EF
P 7750 1500
F 0 "J10" H 7778 1476 50  0000 L CNN
F 1 "SPI_CONN" H 7778 1385 50  0000 L CNN
F 2 "Connector_PinSocket_2.54mm:PinSocket_1x06_P2.54mm_Vertical" H 7750 1500 50  0001 C CNN
F 3 "~" H 7750 1500 50  0001 C CNN
	1    7750 1500
	1    0    0    -1  
$EndComp
$Comp
L power:VCC #PWR?
U 1 1 5FB95A11
P 7250 1200
AR Path="/5F7C1723/5FB95A11" Ref="#PWR?"  Part="1" 
AR Path="/5F7C1723/5FC6AEA7/5FB95A11" Ref="#PWR0157"  Part="1" 
F 0 "#PWR0157" H 7250 1050 50  0001 C CNN
F 1 "VCC" H 7265 1373 50  0000 C CNN
F 2 "" H 7250 1200 50  0001 C CNN
F 3 "" H 7250 1200 50  0001 C CNN
	1    7250 1200
	1    0    0    -1  
$EndComp
$Comp
L power:GND #PWR?
U 1 1 5FB96185
P 6950 1450
AR Path="/5F7C1723/5FB96185" Ref="#PWR?"  Part="1" 
AR Path="/5F7C1723/5FC6AEA7/5FB96185" Ref="#PWR0162"  Part="1" 
F 0 "#PWR0162" H 6950 1200 50  0001 C CNN
F 1 "GND" H 6955 1277 50  0000 C CNN
F 2 "" H 6950 1450 50  0001 C CNN
F 3 "" H 6950 1450 50  0001 C CNN
	1    6950 1450
	1    0    0    -1  
$EndComp
Wire Wire Line
	7550 1300 7250 1300
Wire Wire Line
	7250 1300 7250 1200
Text GLabel 7450 1500 0    50   Input ~ 0
SPI_MOSI
Text GLabel 7450 1600 0    50   Input ~ 0
SPI_MISO
Text GLabel 7450 1700 0    50   Input ~ 0
SPI_SCK
Text GLabel 7450 1800 0    50   Input ~ 0
SPI_CS
Wire Wire Line
	7450 1500 7550 1500
Wire Wire Line
	7450 1600 7550 1600
Wire Wire Line
	7450 1700 7550 1700
Wire Wire Line
	7450 1800 7550 1800
Wire Wire Line
	6950 1400 6950 1450
Wire Wire Line
	6950 1400 7550 1400
Wire Notes Line
	8300 600  8300 3350
Wire Notes Line
	650  600  8300 600 
Wire Notes Line
	650  3350 8300 3350
$EndSCHEMATC
